%YAML 1.1
%TAG !u! tag:unity3d.com,2011:
--- !u!114 &11400000
MonoBehaviour:
  m_ObjectHideFlags: 0
  m_CorrespondingSourceObject: {fileID: 0}
  m_PrefabInstance: {fileID: 0}
  m_PrefabAsset: {fileID: 0}
  m_GameObject: {fileID: 0}
  m_Enabled: 1
  m_EditorHideFlags: 0
  m_Script: {fileID: 11500000, guid: 3c715285676ae1144afae2c92fa1e91b, type: 3}
  m_Name: tests
  m_EditorClassIdentifier: 
  iconName: 
  iconSprite: {fileID: 21300000, guid: f5e8b34bc3907294cbe8170ebf02fa03, type: 3}
  windowToOpen: {fileID: 3022573116684318584, guid: 96e4182a546baeb47a92c43d7196a48a,
    type: 3}
